<?xml version="1.0" encoding="utf-8"?>
<svg xmlns="http://www.w3.org/2000/svg"
	xmlns:xlink="http://www.w3.org/1999/xlink"
	width="80px" height="80px" viewBox="0 0 80 80">
<path fillRule="evenodd" d="M 79.63 30.04C 79.63 30.04 68.2 41.57 68.2 41.57 67.71 42.06 66.9 42.06 66.41 41.57 66.41 41.57 62.85 37.98 62.85 37.98 62.85 37.98 61.79 39.06 61.79 39.06 61.79 39.06 62.08 39.36 62.08 39.36 64.55 41.84 64.55 45.88 62.08 48.37 62.08 48.37 58.93 51.55 58.93 51.55 58.93 51.55 60.93 53.57 60.93 53.57 61.93 54.58 62.48 55.92 62.48 57.35 62.48 58.78 61.93 60.13 60.93 61.14 59.78 62.3 58.23 62.81 56.73 62.68 56.85 64.2 56.34 65.76 55.19 66.92 54.06 68.07 52.53 68.59 51.04 68.47 51.15 69.98 50.63 71.52 49.5 72.67 48.4 73.77 46.86 74.34 45.32 74.22 45.44 75.73 44.92 77.28 43.78 78.43 42.75 79.48 41.39 80 40.03 80 38.67 80 37.31 79.48 36.28 78.43 36.28 78.43 33.75 75.88 33.75 75.88 33.75 75.88 33.27 76.36 33.27 76.36 32.55 77.08 31.6 77.48 30.59 77.48 29.58 77.48 28.63 77.08 27.91 76.36 27.91 76.36 25.77 74.2 25.77 74.2 25.08 73.5 24.72 72.61 24.67 71.7 23.73 71.65 22.86 71.27 22.19 70.59 22.19 70.59 20.05 68.43 20.05 68.43 19.38 67.76 19 66.88 18.95 65.94 18.05 65.89 17.16 65.52 16.48 64.83 16.48 64.83 14.33 62.67 14.33 62.67 13.67 61.99 13.28 61.11 13.23 60.17 12.33 60.12 11.45 59.75 10.76 59.06 10.76 59.06 8.62 56.9 8.62 56.9 7.14 55.41 7.14 52.99 8.62 51.5 8.62 51.5 9.09 51.02 9.09 51.02 9.09 51.02 1.06 42.92 1.06 42.92 0.57 42.42 0.57 41.61 1.06 41.12 1.56 40.62 2.36 40.62 2.85 41.12 2.85 41.12 10.88 49.21 10.88 49.21 10.88 49.21 16.36 43.69 16.36 43.69 18.39 41.64 21.72 41.61 23.79 43.62 23.79 43.62 23.79 43.62 23.79 43.62 24.8 44.6 25.37 45.94 25.38 47.39 25.39 47.78 25.35 48.18 25.27 48.56 26.56 48.58 27.85 49.07 28.85 50.04 28.85 50.04 28.85 50.04 28.85 50.04 29.87 51.03 30.43 52.37 30.45 53.81 30.45 54.09 30.43 54.36 30.39 54.63 31.79 54.58 33.2 55.07 34.27 56.11 34.27 56.11 34.27 56.11 34.27 56.11 35.28 57.09 35.85 58.43 35.86 59.88 35.87 60.28 35.83 60.67 35.75 61.05 37.04 61.07 38.33 61.57 39.33 62.53 40.35 63.52 40.91 64.86 40.93 66.31 40.93 66.82 40.86 67.33 40.73 67.82 40.8 67.87 43.78 70.87 43.78 70.87 43.78 70.87 43.78 70.87 43.78 70.87 44.85 71.95 46.64 71.95 47.71 70.87 48.69 69.88 48.87 68.25 47.97 67.2 47.24 66.36 44.85 64.02 44.85 64.02 44.36 63.52 44.36 62.72 44.85 62.22 45.35 61.72 46.15 61.72 46.64 62.22 46.64 62.22 49.59 65.2 49.63 65.26 50.72 66.21 52.37 66.16 53.41 65.12 54.49 64.03 54.49 62.25 53.41 61.16 53.34 61.09 50.57 58.25 50.57 58.25 50.08 57.76 50.08 56.95 50.57 56.45 51.06 55.96 51.86 55.96 52.35 56.45 52.35 56.45 55.21 59.34 55.21 59.34 55.21 59.34 55.21 59.34 55.21 59.34 56.3 60.43 58.06 60.43 59.14 59.34 60.23 58.24 60.23 56.46 59.14 55.37 59.14 55.37 39.04 35.09 39.04 35.09 39.04 35.09 37.97 36.17 37.97 36.17 37.97 36.17 41.12 39.36 41.12 39.36 43.59 41.84 43.59 45.88 41.12 48.37 41.12 48.37 38.03 51.49 38.03 51.49 37.53 51.99 36.73 51.99 36.24 51.49 36.24 51.49 24.69 39.84 24.69 39.84 23.23 38.36 23.23 35.91 24.69 34.43 24.69 34.43 31.54 27.53 31.54 27.53 31.54 27.53 25.28 21.22 25.28 21.22 24.78 20.72 24.78 19.91 25.28 19.41 25.77 18.92 26.57 18.92 27.06 19.41 27.06 19.41 33.32 25.73 33.32 25.73 33.32 25.73 42.01 16.96 42.01 16.96 42.01 16.96 38.78 13.7 38.78 13.7 38.29 13.2 38.29 12.4 38.78 11.9 38.78 11.9 50.21 0.37 50.21 0.37 50.71-0.13 51.51-0.13 52 0.37 52 0.37 79.63 28.23 79.63 28.23 80.12 28.73 80.12 29.54 79.63 30.04ZM 21.33 44.96C 20.28 44.44 18.97 44.65 18.14 45.49 18.14 45.49 10.4 53.3 10.4 53.3 9.91 53.79 9.91 54.6 10.4 55.1 10.4 55.1 12.55 57.26 12.55 57.26 13.04 57.76 13.84 57.76 14.33 57.26 14.33 57.26 22.01 49.52 22.01 49.52 22.47 49.06 22.76 48.44 22.84 47.8 22.98 46.63 22.39 45.47 21.33 44.96ZM 27.73 52.84C 27.33 51.79 26.28 51.1 25.17 51.1 24.46 51.1 23.74 51.37 23.21 51.91 23.21 51.91 16.12 59.06 16.12 59.06 15.63 59.55 15.63 60.37 16.12 60.86 16.12 60.86 18.26 63.03 18.26 63.03 18.76 63.52 19.56 63.52 20.05 63.03 20.05 63.03 27.07 55.94 27.07 55.94 27.86 55.14 28.14 53.89 27.73 52.84ZM 31.88 57.49C 30.82 56.92 29.47 57.13 28.62 57.98 28.62 57.98 21.84 64.83 21.84 64.83 21.35 65.32 21.35 66.14 21.84 66.63 21.84 66.63 23.98 68.79 23.98 68.79 24.47 69.28 25.28 69.28 25.77 68.79 25.77 68.79 32.49 62.01 32.49 62.01 32.98 61.51 33.29 60.83 33.33 60.12 33.4 59.04 32.83 58 31.88 57.49ZM 37.58 64.37C 36.51 63.33 34.74 63.35 33.69 64.41 33.69 64.41 27.55 70.59 27.55 70.59 27.55 70.59 27.55 70.59 27.55 70.59 27.06 71.09 27.06 71.9 27.55 72.39 27.55 72.39 29.7 74.56 29.7 74.56 29.93 74.8 30.25 74.93 30.59 74.93 30.93 74.93 31.24 74.8 31.48 74.56 31.48 74.56 37.55 68.43 37.55 68.43 38.63 67.34 38.7 65.46 37.58 64.37ZM 41.99 72.67C 41.99 72.67 41.99 72.67 41.99 72.67 41.99 72.67 39.46 70.11 39.46 70.11 39.42 70.15 35.53 74.08 35.53 74.08 35.53 74.08 38.06 76.63 38.06 76.63 39.15 77.72 40.91 77.72 41.99 76.63 43.08 75.54 43.08 73.76 41.99 72.67ZM 51.11 3.07C 51.11 3.07 41.46 12.8 41.46 12.8 41.46 12.8 56.08 27.55 56.08 27.55 56.58 28.04 56.58 28.85 56.08 29.35 55.59 29.85 54.79 29.85 54.3 29.35 54.3 29.35 43.8 18.76 43.8 18.76 43.8 18.76 26.47 36.23 26.47 36.23 25.99 36.73 25.99 37.55 26.47 38.04 26.47 38.04 37.13 48.79 37.13 48.79 37.13 48.79 39.34 46.56 39.34 46.56 40.81 45.07 40.81 42.65 39.34 41.16 39.34 41.16 35.29 37.08 35.29 37.08 34.79 36.58 34.79 35.77 35.29 35.27 35.29 35.27 38.15 32.39 38.15 32.39 38.63 31.9 39.45 31.9 39.93 32.39 39.93 32.39 57.14 49.75 57.14 49.75 57.14 49.75 60.3 46.56 60.3 46.56 61.77 45.07 61.77 42.65 60.3 41.16 60.3 41.16 59.11 39.96 59.11 39.96 58.61 39.46 58.61 38.65 59.11 38.16 59.11 38.16 61.07 36.18 61.07 36.18 61.07 36.18 59.32 34.41 59.32 34.41 58.82 33.91 58.82 33.11 59.32 32.61 59.81 32.11 60.61 32.11 61.1 32.61 61.1 32.61 67.3 38.86 67.3 38.86 67.3 38.86 76.95 29.14 76.95 29.14 76.95 29.14 51.11 3.07 51.11 3.07ZM 21.64 12.72C 20.78 12.84 18.62 13.32 17.08 15.3 15.98 16.72 15.72 18.25 15.66 19.03 15.61 19.7 15.06 20.21 14.4 20.21 13.74 20.21 13.19 19.7 13.14 19.03 13.08 18.25 12.82 16.72 11.72 15.3 10.18 13.32 8.02 12.84 7.16 12.72 6.53 12.64 6.06 12.1 6.06 11.46 6.06 10.82 6.53 10.28 7.16 10.2 8.02 10.08 10.18 9.6 11.72 7.62 12.82 6.21 13.08 4.68 13.14 3.89 13.19 3.23 13.74 2.71 14.4 2.71 15.06 2.71 15.61 3.23 15.66 3.89 15.72 4.68 15.98 6.21 17.08 7.62 18.62 9.6 20.78 10.08 21.64 10.2 22.27 10.28 22.74 10.82 22.74 11.46 22.74 12.1 22.27 12.64 21.64 12.72ZM 14.4 8.17C 14.2 8.51 13.97 8.85 13.71 9.19 12.92 10.21 12.01 10.94 11.12 11.46 12.01 11.98 12.92 12.71 13.71 13.73 13.71 13.73 13.71 13.73 13.71 13.73 13.97 14.07 14.2 14.41 14.4 14.75 15.19 13.39 16.33 12.26 17.68 11.46 16.33 10.67 15.19 9.53 14.4 8.17ZM 5.66 67.41C 6.75 66 7.02 64.47 7.08 63.68 7.13 63.02 7.68 62.5 8.34 62.5 9 62.5 9.55 63.02 9.6 63.68 9.66 64.47 9.92 66 11.01 67.41 12.56 69.39 14.72 69.87 15.58 69.99 16.2 70.07 16.67 70.61 16.67 71.25 16.67 71.89 16.2 72.43 15.58 72.52 14.72 72.63 12.56 73.11 11.02 75.1 9.92 76.51 9.66 78.04 9.6 78.82 9.55 79.49 9 80 8.34 80 7.68 80 7.13 79.49 7.08 78.82 7.02 78.04 6.75 76.51 5.66 75.1 4.12 73.11 1.95 72.63 1.1 72.52 0.47 72.43 0 71.89 0 71.25 0 70.61 0.47 70.07 1.1 69.99 1.95 69.87 4.12 69.39 5.66 67.41ZM 7.65 73.52C 7.65 73.52 7.65 73.52 7.65 73.52 7.91 73.86 8.14 74.2 8.34 74.54 8.54 74.2 8.76 73.86 9.03 73.52 9.82 72.5 10.73 71.77 11.61 71.25 10.26 70.46 9.13 69.32 8.34 67.96 7.54 69.32 6.41 70.46 5.06 71.25 5.95 71.77 6.85 72.5 7.65 73.52ZM 64.42 59.12C 65.28 59 67.44 58.52 68.98 56.54 70.08 55.13 70.34 53.6 70.4 52.81 70.45 52.15 71 51.63 71.66 51.63 72.32 51.63 72.87 52.15 72.92 52.81 72.98 53.6 73.24 55.13 74.34 56.54 75.88 58.52 78.04 59 78.9 59.12 79.53 59.2 80 59.74 80 60.38 80 61.02 79.53 61.56 78.9 61.64 78.04 61.76 75.88 62.24 74.34 64.22 73.24 65.64 72.98 67.16 72.92 67.95 72.87 68.62 72.32 69.13 71.66 69.13 71 69.13 70.45 68.62 70.4 67.95 70.34 67.17 70.08 65.64 68.98 64.22 67.44 62.24 65.28 61.76 64.42 61.64 63.79 61.56 63.32 61.02 63.32 60.38 63.32 59.74 63.79 59.2 64.42 59.12ZM 70.97 62.65C 70.97 62.65 70.97 62.65 70.97 62.65 71.23 62.99 71.46 63.33 71.66 63.67 71.86 63.33 72.09 62.99 72.35 62.65 73.14 61.63 74.05 60.9 74.94 60.38 73.59 59.59 72.46 58.45 71.66 57.09 70.87 58.45 69.73 59.59 68.38 60.38 69.27 60.9 70.18 61.63 70.97 62.65Z" fill="rgb(23,147,209)"/></svg>